<?xml version="1.0" encoding="UTF-8" standalone="no"?>
<!DOCTYPE svg PUBLIC "-//W3C//DTD SVG 1.1//EN"
 "http://www.w3.org/Graphics/SVG/1.1/DTD/svg11.dtd">
<!-- Generated by graphviz version 2.44.2~dev.20201107.0410 (20201107.0410)
 -->
<!-- Title: G Pages: 1 -->
<svg width="3455pt" height="1397pt"
 viewBox="0.00 0.00 3454.71 1397.00" xmlns="http://www.w3.org/2000/svg" xmlns:xlink="http://www.w3.org/1999/xlink">
<g id="graph0" class="graph" transform="scale(1 1) rotate(0) translate(4 1393)">
<title>G</title>
<polygon fill="white" stroke="transparent" points="-4,4 -4,-1393 3450.71,-1393 3450.71,4 -4,4"/>
<!-- n1 -->
<g id="node1" class="node">
<title>n1</title>
<g id="a_node1"><a xlink:href="http://bioprov.org/entities/23c293bf-2739-4ac3-8d11-d08555daea67" xlink:title="bioprov:entities/23c293bf&#45;2739&#45;4ac3&#45;8d11&#45;d08555daea67">
<ellipse fill="#fffc87" stroke="#808080" cx="2527.21" cy="-572.5" rx="219.86" ry="18"/>
<text text-anchor="middle" x="2527.21" y="-568.8" font-family="Times New Roman,serif" font-size="14.00">bioprov:entities/23c293bf&#45;2739&#45;4ac3&#45;8d11&#45;d08555daea67</text>
</a>
</g>
</g>
<!-- n5 -->
<g id="node9" class="node">
<title>n5</title>
<g id="a_node9"><a xlink:href="http://bioprov.poli.usp.br/analysing" xlink:title="bioprov.poli.usp.br7:">
<polygon fill="#9fb1fc" stroke="#0000ff" points="2148.71,-699.5 2013.71,-699.5 2013.71,-663.5 2148.71,-663.5 2148.71,-699.5"/>
<text text-anchor="middle" x="2081.21" y="-677.8" font-family="Times New Roman,serif" font-size="14.00">bioprov.poli.usp.br7:</text>
</a>
</g>
</g>
<!-- n1&#45;&gt;n5 -->
<g id="edge53" class="edge">
<title>n1:&#45;&gt;n5:</title>
<path fill="none" stroke="darkgreen" d="M2410.67,-587.79C2336.82,-598.77 2239.97,-616.76 2157.21,-644 2145.26,-647.93 2132.77,-653.34 2121.45,-658.79"/>
<polygon fill="darkgreen" stroke="darkgreen" points="2119.66,-655.77 2112.25,-663.34 2122.76,-662.04 2119.66,-655.77"/>
<text text-anchor="middle" x="2291.21" y="-618" font-family="Times New Roman,serif" font-size="10.00" fill="darkgreen">wasGeneratedBy</text>
</g>
<!-- n18 -->
<g id="node35" class="node">
<title>n18</title>
<g id="a_node35"><a xlink:href="http://bioprov.poli.usp.br/agents/6613529" xlink:title="bioprov.poli.usp.br6:">
<polygon fill="#fed37f" stroke="black" points="3177.62,-1162.06 3069.21,-1174.5 2960.8,-1162.06 2960.9,-1141.94 3177.52,-1141.94 3177.62,-1162.06"/>
<text text-anchor="middle" x="3069.21" y="-1152.8" font-family="Times New Roman,serif" font-size="14.00">bioprov.poli.usp.br6:</text>
</a>
</g>
</g>
<!-- n1&#45;&gt;n18 -->
<g id="edge36" class="edge">
<title>n1:&#45;&gt;n18:</title>
<path fill="none" stroke="#fed37f" d="M2522.64,-590.7C2511.53,-636.67 2488.08,-764.13 2546.21,-841 2583.26,-890.01 2623.16,-857 2676.21,-888 2712.67,-909.31 2714.34,-924.77 2748.21,-950 2849.21,-1025.23 2977.45,-1102.18 3036.6,-1136.71"/>
<polygon fill="#fed37f" stroke="#fed37f" points="3035.09,-1139.88 3045.49,-1141.89 3038.61,-1133.83 3035.09,-1139.88"/>
<text text-anchor="middle" x="2628.21" y="-862" font-family="Times New Roman,serif" font-size="10.00">wasAttributedTo</text>
</g>
<!-- ann1 -->
<g id="node2" class="node">
<title>ann1</title>
<polygon fill="none" stroke="gray" points="2669.71,-488 2384.71,-488 2384.71,-439 2675.71,-439 2675.71,-482 2669.71,-488"/>
<polyline fill="none" stroke="gray" points="2669.71,-488 2669.71,-482 "/>
<polyline fill="none" stroke="gray" points="2675.71,-482 2669.71,-482 "/>
<g id="a_node2_0"><a xlink:href="http://purl.org/dc/terms/created" xlink:title="&lt;TABLE&gt;">
<text text-anchor="start" x="2395.21" y="-473.5" font-family="Times New Roman,serif" font-size="10.00">dcterms:created</text>
</a>
</g>
<text text-anchor="start" x="2461.21" y="-473.5" font-family="Times New Roman,serif" font-size="10.00">2021&#45;02&#45;21 12:18:56</text>
<g id="a_node2_1"><a xlink:href="http://purl.org/dc/terms/title" xlink:title="&lt;TABLE&gt;">
<text text-anchor="start" x="2395.21" y="-460.5" font-family="Times New Roman,serif" font-size="10.00">dcterms:title</text>
</a>
</g>
<text text-anchor="start" x="2461.21" y="-460.5" font-family="Times New Roman,serif" font-size="10.00">Species Distribution Model of the Ziziphus juazeiro</text>
<g id="a_node2_2"><a xlink:href="http://purl.org/dc/terms/type" xlink:title="&lt;TABLE&gt;">
<text text-anchor="start" x="2395.21" y="-447.5" font-family="Times New Roman,serif" font-size="10.00">dcterms:type</text>
</a>
</g>
<text text-anchor="start" x="2461.21" y="-447.5" font-family="Times New Roman,serif" font-size="10.00">Model</text>
</g>
<!-- ann1&#45;&gt;n1 -->
<g id="edge1" class="edge">
<title>ann1:&#45;&gt;n1:</title>
<path fill="none" stroke="gray" stroke-dasharray="5,2" d="M2529.54,-488.25C2528.98,-508.32 2528.19,-536.58 2527.68,-554.47"/>
</g>
<!-- n2 -->
<g id="node3" class="node">
<title>n2</title>
<g id="a_node3"><a xlink:href="http://bioprov.poli.usp.br/param/species" xlink:title="bioprov.poli.usp.br4:">
<ellipse fill="#fffc87" stroke="#808080" cx="2184.21" cy="-1034.5" rx="87.99" ry="18"/>
<text text-anchor="middle" x="2184.21" y="-1030.8" font-family="Times New Roman,serif" font-size="14.00">bioprov.poli.usp.br4:</text>
</a>
</g>
</g>
<!-- ann2 -->
<g id="node4" class="node">
<title>ann2</title>
<polygon fill="none" stroke="gray" points="2301.21,-943.5 2145.21,-943.5 2145.21,-894.5 2307.21,-894.5 2307.21,-937.5 2301.21,-943.5"/>
<polyline fill="none" stroke="gray" points="2301.21,-943.5 2301.21,-937.5 "/>
<polyline fill="none" stroke="gray" points="2307.21,-937.5 2301.21,-937.5 "/>
<g id="a_node4_3"><a xlink:href="http://purl.org/dc/terms/created" xlink:title="&lt;TABLE&gt;">
<text text-anchor="start" x="2155.21" y="-929" font-family="Times New Roman,serif" font-size="10.00">dcterms:created</text>
</a>
</g>
<text text-anchor="start" x="2221.21" y="-929" font-family="Times New Roman,serif" font-size="10.00">2021&#45;02&#45;21 12:18:20</text>
<g id="a_node4_4"><a xlink:href="http://purl.org/dc/terms/type" xlink:title="&lt;TABLE&gt;">
<text text-anchor="start" x="2155.21" y="-916" font-family="Times New Roman,serif" font-size="10.00">dcterms:type</text>
</a>
</g>
<text text-anchor="start" x="2221.21" y="-916" font-family="Times New Roman,serif" font-size="10.00">InputParameter</text>
<g id="a_node4_5"><a xlink:href="http://www.w3.org/1999/02/22-rdf-syntax-ns#value" xlink:title="&lt;TABLE&gt;">
<text text-anchor="start" x="2155.21" y="-903" font-family="Times New Roman,serif" font-size="10.00">rdf:value</text>
</a>
</g>
<text text-anchor="start" x="2221.21" y="-903" font-family="Times New Roman,serif" font-size="10.00">Ziziphus joazeiro</text>
</g>
<!-- ann2&#45;&gt;n2 -->
<g id="edge2" class="edge">
<title>ann2:&#45;&gt;n2:</title>
<path fill="none" stroke="gray" stroke-dasharray="5,2" d="M2217.5,-943.52C2209.48,-965.2 2197.75,-996.89 2190.57,-1016.3"/>
</g>
<!-- n3 -->
<g id="node5" class="node">
<title>n3</title>
<g id="a_node5"><a xlink:href="http://bioprov.org/entities/fb8b6ac0-bbde-4e08-ae94-28dbcfa3f8a0" xlink:title="bioprov:entities/fb8b6ac0&#45;bbde&#45;4e08&#45;ae94&#45;28dbcfa3f8a0">
<ellipse fill="#fffc87" stroke="#808080" cx="2775.21" cy="-354.5" rx="216.36" ry="18"/>
<text text-anchor="middle" x="2775.21" y="-350.8" font-family="Times New Roman,serif" font-size="14.00">bioprov:entities/fb8b6ac0&#45;bbde&#45;4e08&#45;ae94&#45;28dbcfa3f8a0</text>
</a>
</g>
</g>
<!-- n12 -->
<g id="node23" class="node">
<title>n12</title>
<g id="a_node23"><a xlink:href="http://bioprov.poli.usp.br/projecting" xlink:title="bioprov.poli.usp.br9:">
<polygon fill="#9fb1fc" stroke="#0000ff" points="2366.71,-481.5 2231.71,-481.5 2231.71,-445.5 2366.71,-445.5 2366.71,-481.5"/>
<text text-anchor="middle" x="2299.21" y="-459.8" font-family="Times New Roman,serif" font-size="14.00">bioprov.poli.usp.br9:</text>
</a>
</g>
</g>
<!-- n3&#45;&gt;n12 -->
<g id="edge51" class="edge">
<title>n3:&#45;&gt;n12:</title>
<path fill="none" stroke="darkgreen" d="M2646.95,-369.04C2567.4,-379.65 2463.82,-397.51 2375.21,-426 2363.12,-429.89 2350.5,-435.33 2339.1,-440.82"/>
<polygon fill="darkgreen" stroke="darkgreen" points="2337.24,-437.84 2329.85,-445.42 2340.36,-444.11 2337.24,-437.84"/>
<text text-anchor="middle" x="2517.21" y="-400" font-family="Times New Roman,serif" font-size="10.00" fill="darkgreen">wasGeneratedBy</text>
</g>
<!-- n3&#45;&gt;n18 -->
<g id="edge41" class="edge">
<title>n3:&#45;&gt;n18:</title>
<path fill="none" stroke="#fed37f" d="M2855.85,-371.25C2935.41,-389.17 3045.21,-421.34 3045.21,-462.5 3045.21,-462.5 3045.21,-462.5 3045.21,-682.5 3045.21,-711.61 3042.81,-719.08 3046.21,-748 3047.16,-756.14 3048.53,-757.98 3050.21,-766 3059.22,-809.22 3069.21,-819.35 3069.21,-863.5 3069.21,-863.5 3069.21,-863.5 3069.21,-1035.5 3069.21,-1068.92 3069.21,-1107.58 3069.21,-1131.79"/>
<polygon fill="#fed37f" stroke="#fed37f" points="3065.71,-1131.82 3069.21,-1141.82 3072.71,-1131.82 3065.71,-1131.82"/>
<text text-anchor="middle" x="3081.21" y="-740" font-family="Times New Roman,serif" font-size="10.00">wasAttributedTo</text>
</g>
<!-- b1 -->
<g id="node47" class="node">
<title>b1</title>
<ellipse fill="gray" stroke="gray" cx="2745.21" cy="-463.5" rx="1.8" ry="1.8"/>
</g>
<!-- n3&#45;&gt;b1 -->
<g id="edge45" class="edge">
<title>n3:&#45;&gt;b1:</title>
<path fill="none" stroke="black" d="M2770.39,-372.69C2762.57,-400.57 2747.77,-453.37 2745.5,-461.45"/>
<text text-anchor="middle" x="2796.21" y="-400" font-family="Times New Roman,serif" font-size="10.00">wasDerivedFrom</text>
</g>
<!-- ann3 -->
<g id="node6" class="node">
<title>ann3</title>
<polygon fill="none" stroke="gray" points="2927.71,-283 2636.71,-283 2636.71,-221 2933.71,-221 2933.71,-277 2927.71,-283"/>
<polyline fill="none" stroke="gray" points="2927.71,-283 2927.71,-277 "/>
<polyline fill="none" stroke="gray" points="2933.71,-277 2927.71,-277 "/>
<g id="a_node6_6"><a xlink:href="http://purl.org/dc/terms/created" xlink:title="&lt;TABLE&gt;">
<text text-anchor="start" x="2647.21" y="-269" font-family="Times New Roman,serif" font-size="10.00">dcterms:created</text>
</a>
</g>
<text text-anchor="start" x="2728.21" y="-269" font-family="Times New Roman,serif" font-size="10.00">2021&#45;02&#45;21 12:19:11</text>
<g id="a_node6_7"><a xlink:href="http://purl.org/dc/terms/description" xlink:title="&lt;TABLE&gt;">
<text text-anchor="start" x="2647.21" y="-256" font-family="Times New Roman,serif" font-size="10.00">dcterms:description</text>
</a>
</g>
<text text-anchor="start" x="2728.21" y="-256" font-family="Times New Roman,serif" font-size="10.00">Species Distribution Model projected on the map</text>
<g id="a_node6_8"><a xlink:href="http://purl.org/dc/terms/title" xlink:title="&lt;TABLE&gt;">
<text text-anchor="start" x="2647.21" y="-243" font-family="Times New Roman,serif" font-size="10.00">dcterms:title</text>
</a>
</g>
<text text-anchor="start" x="2728.21" y="-243" font-family="Times New Roman,serif" font-size="10.00">Species Distribution Model Projection</text>
<g id="a_node6_9"><a xlink:href="http://purl.org/dc/terms/type" xlink:title="&lt;TABLE&gt;">
<text text-anchor="start" x="2647.21" y="-230" font-family="Times New Roman,serif" font-size="10.00">dcterms:type</text>
</a>
</g>
<text text-anchor="start" x="2728.21" y="-230" font-family="Times New Roman,serif" font-size="10.00">rasterLayer</text>
</g>
<!-- ann3&#45;&gt;n3 -->
<g id="edge3" class="edge">
<title>ann3:&#45;&gt;n3:</title>
<path fill="none" stroke="gray" stroke-dasharray="5,2" d="M2782.21,-283.15C2780.48,-300.5 2778.37,-321.67 2776.93,-336.23"/>
</g>
<!-- n4 -->
<g id="node7" class="node">
<title>n4</title>
<g id="a_node7"><a xlink:href="http://bioprov.poli.usp.br/agents/8788438" xlink:title="bioprov.poli.usp.br5:">
<polygon fill="#fed37f" stroke="black" points="3408.62,-257.56 3300.21,-270 3191.8,-257.56 3191.9,-237.44 3408.52,-237.44 3408.62,-257.56"/>
<text text-anchor="middle" x="3300.21" y="-248.3" font-family="Times New Roman,serif" font-size="14.00">bioprov.poli.usp.br5:</text>
</a>
</g>
</g>
<!-- ann4 -->
<g id="node8" class="node">
<title>ann4</title>
<polygon fill="none" stroke="gray" points="3440.71,-174 3205.71,-174 3205.71,-99 3446.71,-99 3446.71,-168 3440.71,-174"/>
<polyline fill="none" stroke="gray" points="3440.71,-174 3440.71,-168 "/>
<polyline fill="none" stroke="gray" points="3446.71,-168 3440.71,-168 "/>
<g id="a_node8_10"><a xlink:href="http://purl.org/dc/terms/created" xlink:title="&lt;TABLE&gt;">
<text text-anchor="start" x="3216.21" y="-159.5" font-family="Times New Roman,serif" font-size="10.00">dcterms:created</text>
</a>
</g>
<text text-anchor="start" x="3282.21" y="-159.5" font-family="Times New Roman,serif" font-size="10.00">2021&#45;02&#45;21 12:15:50</text>
<g id="a_node8_11"><a xlink:href="http://purl.org/dc/terms/type" xlink:title="&lt;TABLE&gt;">
<text text-anchor="start" x="3216.21" y="-146.5" font-family="Times New Roman,serif" font-size="10.00">dcterms:type</text>
</a>
</g>
<text text-anchor="start" x="3282.21" y="-146.5" font-family="Times New Roman,serif" font-size="10.00">Researcher</text>
<g id="a_node8_12"><a xlink:href="http://xmlns.com/foaf/0.1/mbox" xlink:title="&lt;TABLE&gt;">
<text text-anchor="start" x="3216.21" y="-133.5" font-family="Times New Roman,serif" font-size="10.00">foaf:mbox</text>
</a>
</g>
<text text-anchor="start" x="3282.21" y="-133.5" font-family="Times New Roman,serif" font-size="10.00">mailto:andrefmb@usp.br</text>
<g id="a_node8_13"><a xlink:href="http://xmlns.com/foaf/0.1/name" xlink:title="&lt;TABLE&gt;">
<text text-anchor="start" x="3216.21" y="-120.5" font-family="Times New Roman,serif" font-size="10.00">foaf:name</text>
</a>
</g>
<text text-anchor="start" x="3282.21" y="-120.5" font-family="Times New Roman,serif" font-size="10.00">Andre Filipe de Moraes Batista</text>
<g id="a_node8_14"><a xlink:href="http://www.w3.org/2000/01/rdf-schema#seeAlso" xlink:title="&lt;TABLE&gt;">
<text text-anchor="start" x="3216.21" y="-107.5" font-family="Times New Roman,serif" font-size="10.00">rdfs:seeAlso</text>
</a>
</g>
<text text-anchor="start" x="3282.21" y="-107.5" font-family="Times New Roman,serif" font-size="10.00">http://lattes.cnpq.br/2015345575533420</text>
</g>
<!-- ann4&#45;&gt;n4 -->
<g id="edge4" class="edge">
<title>ann4:&#45;&gt;n4:</title>
<path fill="none" stroke="gray" stroke-dasharray="5,2" d="M3317.84,-174.04C3312.88,-195.68 3306.89,-221.84 3303.32,-237.41"/>
</g>
<!-- n15 -->
<g id="node29" class="node">
<title>n15</title>
<g id="a_node29"><a xlink:href="http://cran.r-project.org/web/packages/dismo" xlink:title="cran.r&#45;project.org1:">
<ellipse fill="#fffc87" stroke="#808080" cx="134.21" cy="-803.5" rx="81.49" ry="18"/>
<text text-anchor="middle" x="134.21" y="-799.8" font-family="Times New Roman,serif" font-size="14.00">cran.r&#45;project.org1:</text>
</a>
</g>
</g>
<!-- n5&#45;&gt;n15 -->
<g id="edge28" class="edge">
<title>n5:&#45;&gt;n15:</title>
<path fill="none" stroke="#8b0000" d="M2013.63,-682.48C1722.65,-682.84 575.55,-689.23 224.21,-766 207.59,-769.63 190.09,-776.07 174.98,-782.54"/>
<polygon fill="#8b0000" stroke="#8b0000" points="173.16,-779.52 165.44,-786.77 176,-785.92 173.16,-779.52"/>
<text text-anchor="middle" x="421.21" y="-740" font-family="Times New Roman,serif" font-size="10.00" fill="red">used</text>
</g>
<!-- n20 -->
<g id="node39" class="node">
<title>n20</title>
<g id="a_node39"><a xlink:href="http://bioprov.poli.usp.br/bioclim_env_layers" xlink:title="bioprov.poli.usp.br2:">
<ellipse fill="#fffc87" stroke="#808080" cx="2643.21" cy="-803.5" rx="87.99" ry="18"/>
<text text-anchor="middle" x="2643.21" y="-799.8" font-family="Times New Roman,serif" font-size="14.00">bioprov.poli.usp.br2:</text>
</a>
</g>
</g>
<!-- n5&#45;&gt;n20 -->
<g id="edge24" class="edge">
<title>n5:&#45;&gt;n20:</title>
<path fill="none" stroke="#8b0000" d="M2111.02,-699.51C2124.69,-706.6 2141.36,-714.26 2157.21,-719 2308.01,-764.07 2353.91,-734.95 2508.21,-766 2534.25,-771.24 2562.7,-778.67 2586.73,-785.46"/>
<polygon fill="#8b0000" stroke="#8b0000" points="2585.82,-788.84 2596.4,-788.22 2587.74,-782.11 2585.82,-788.84"/>
<text text-anchor="middle" x="2342.21" y="-740" font-family="Times New Roman,serif" font-size="10.00" fill="red">used</text>
</g>
<!-- n23 -->
<g id="node45" class="node">
<title>n23</title>
<g id="a_node45"><a xlink:href="http://bioprov.poli.usp.br/occ_ziziphus_juazeiro" xlink:title="bioprov.poli.usp.br8:">
<ellipse fill="#fffc87" stroke="#808080" cx="2081.21" cy="-803.5" rx="87.99" ry="18"/>
<text text-anchor="middle" x="2081.21" y="-799.8" font-family="Times New Roman,serif" font-size="14.00">bioprov.poli.usp.br8:</text>
</a>
</g>
</g>
<!-- n5&#45;&gt;n23 -->
<g id="edge27" class="edge">
<title>n5:&#45;&gt;n23:</title>
<path fill="none" stroke="#8b0000" d="M2081.21,-699.69C2081.21,-719.39 2081.21,-751.92 2081.21,-775.11"/>
<polygon fill="#8b0000" stroke="#8b0000" points="2077.71,-775.34 2081.21,-785.34 2084.71,-775.34 2077.71,-775.34"/>
<text text-anchor="middle" x="2091.21" y="-740" font-family="Times New Roman,serif" font-size="10.00" fill="red">used</text>
</g>
<!-- ann5 -->
<g id="node10" class="node">
<title>ann5</title>
<polygon fill="none" stroke="gray" points="2234.21,-597 1922.21,-597 1922.21,-548 2240.21,-548 2240.21,-591 2234.21,-597"/>
<polyline fill="none" stroke="gray" points="2234.21,-597 2234.21,-591 "/>
<polyline fill="none" stroke="gray" points="2240.21,-591 2234.21,-591 "/>
<g id="a_node10_15"><a xlink:href="http://purl.org/dc/terms/created" xlink:title="&lt;TABLE&gt;">
<text text-anchor="start" x="1932.21" y="-582.5" font-family="Times New Roman,serif" font-size="10.00">dcterms:created</text>
</a>
</g>
<text text-anchor="start" x="1998.21" y="-582.5" font-family="Times New Roman,serif" font-size="10.00">2021&#45;02&#45;21 12:19:00</text>
<g id="a_node10_16"><a xlink:href="http://purl.org/dc/terms/title" xlink:title="&lt;TABLE&gt;">
<text text-anchor="start" x="1932.21" y="-569.5" font-family="Times New Roman,serif" font-size="10.00">dcterms:title</text>
</a>
</g>
<text text-anchor="start" x="1998.21" y="-569.5" font-family="Times New Roman,serif" font-size="10.00">Species Distribution Modeling with the Bioclim Algorithm</text>
<g id="a_node10_17"><a xlink:href="http://purl.org/dc/terms/type" xlink:title="&lt;TABLE&gt;">
<text text-anchor="start" x="1932.21" y="-556.5" font-family="Times New Roman,serif" font-size="10.00">dcterms:type</text>
</a>
</g>
<text text-anchor="start" x="1998.21" y="-556.5" font-family="Times New Roman,serif" font-size="10.00">Analysis</text>
</g>
<!-- ann5&#45;&gt;n5 -->
<g id="edge5" class="edge">
<title>ann5:&#45;&gt;n5:</title>
<path fill="none" stroke="gray" stroke-dasharray="5,2" d="M2081.21,-597.25C2081.21,-617.32 2081.21,-645.58 2081.21,-663.47"/>
</g>
<!-- n6 -->
<g id="node11" class="node">
<title>n6</title>
<g id="a_node11"><a xlink:href="http://cran.r-project.org/web/packages/raster#plot" xlink:title="cran.r&#45;project.org:plot">
<ellipse fill="#fffc87" stroke="#808080" cx="919.21" cy="-572.5" rx="90.98" ry="18"/>
<text text-anchor="middle" x="919.21" y="-568.8" font-family="Times New Roman,serif" font-size="14.00">cran.r&#45;project.org:plot</text>
</a>
</g>
</g>
<!-- n8 -->
<g id="node15" class="node">
<title>n8</title>
<g id="a_node15"><a xlink:href="http://desp.ucdavis.edu/people/robert-j-hijmans" xlink:title="desp.ucdavis.edu:">
<polygon fill="#fed37f" stroke="black" points="748.2,-924.56 654.21,-937 560.22,-924.56 560.31,-904.44 748.11,-904.44 748.2,-924.56"/>
<text text-anchor="middle" x="654.21" y="-915.3" font-family="Times New Roman,serif" font-size="14.00">desp.ucdavis.edu:</text>
</a>
</g>
</g>
<!-- n6&#45;&gt;n8 -->
<g id="edge38" class="edge">
<title>n6:&#45;&gt;n8:</title>
<path fill="none" stroke="#fed37f" d="M828.18,-574.01C614.84,-576.16 96.59,-587.23 44.21,-644 -15.17,-708.35 -14.23,-775.8 44.21,-841 81.96,-883.13 495.53,-877.94 551.21,-888 568.98,-891.21 588.07,-896.29 604.92,-901.37"/>
<polygon fill="#fed37f" stroke="#fed37f" points="603.97,-904.74 614.56,-904.34 606.04,-898.05 603.97,-904.74"/>
<text text-anchor="middle" x="35.21" y="-740" font-family="Times New Roman,serif" font-size="10.00">wasAttributedTo</text>
</g>
<!-- ann6 -->
<g id="node12" class="node">
<title>ann6</title>
<polygon fill="none" stroke="gray" points="1094.71,-501 737.71,-501 737.71,-426 1100.71,-426 1100.71,-495 1094.71,-501"/>
<polyline fill="none" stroke="gray" points="1094.71,-501 1094.71,-495 "/>
<polyline fill="none" stroke="gray" points="1100.71,-495 1094.71,-495 "/>
<g id="a_node12_18"><a xlink:href="http://purl.org/dc/terms/created" xlink:title="&lt;TABLE&gt;">
<text text-anchor="start" x="748.21" y="-486.5" font-family="Times New Roman,serif" font-size="10.00">dcterms:created</text>
</a>
</g>
<text text-anchor="start" x="814.21" y="-486.5" font-family="Times New Roman,serif" font-size="10.00">2021&#45;02&#45;21 12:19:15</text>
<g id="a_node12_19"><a xlink:href="http://purl.org/dc/terms/source" xlink:title="&lt;TABLE&gt;">
<text text-anchor="start" x="748.21" y="-473.5" font-family="Times New Roman,serif" font-size="10.00">dcterms:source</text>
</a>
</g>
<text text-anchor="start" x="814.21" y="-473.5" font-family="Times New Roman,serif" font-size="10.00">http://cran.r&#45;project.org/src/contrib/raster_2.5&#45;2.tar.gz</text>
<g id="a_node12_20"><a xlink:href="http://purl.org/dc/terms/title" xlink:title="&lt;TABLE&gt;">
<text text-anchor="start" x="748.21" y="-460.5" font-family="Times New Roman,serif" font-size="10.00">dcterms:title</text>
</a>
</g>
<text text-anchor="start" x="814.21" y="-460.5" font-family="Times New Roman,serif" font-size="10.00">Plot function of the RASTER package from R Programming Language</text>
<g id="a_node12_21"><a xlink:href="http://purl.org/dc/terms/type" xlink:title="&lt;TABLE&gt;">
<text text-anchor="start" x="748.21" y="-447.5" font-family="Times New Roman,serif" font-size="10.00">dcterms:type</text>
</a>
</g>
<text text-anchor="start" x="814.21" y="-447.5" font-family="Times New Roman,serif" font-size="10.00">Software</text>
<g id="a_node12_22"><a xlink:href="http://www.w3.org/2000/01/rdf-schema#seeAlso" xlink:title="&lt;TABLE&gt;">
<text text-anchor="start" x="748.21" y="-434.5" font-family="Times New Roman,serif" font-size="10.00">rdfs:seeAlso</text>
</a>
</g>
<text text-anchor="start" x="814.21" y="-434.5" font-family="Times New Roman,serif" font-size="10.00">http://cran.r&#45;project.org/web/packages/raster/raster.pdf</text>
</g>
<!-- ann6&#45;&gt;n6 -->
<g id="edge6" class="edge">
<title>ann6:&#45;&gt;n6:</title>
<path fill="none" stroke="gray" stroke-dasharray="5,2" d="M919.21,-501.02C919.21,-519.07 919.21,-539.98 919.21,-554.31"/>
</g>
<!-- n7 -->
<g id="node13" class="node">
<title>n7</title>
<g id="a_node13"><a xlink:href="http://bioprov.poli.usp.br/acquisition" xlink:title="bioprov.poli.usp.br12:">
<polygon fill="#9fb1fc" stroke="#0000ff" points="2127.21,-937 1985.21,-937 1985.21,-901 2127.21,-901 2127.21,-937"/>
<text text-anchor="middle" x="2056.21" y="-915.3" font-family="Times New Roman,serif" font-size="14.00">bioprov.poli.usp.br12:</text>
</a>
</g>
</g>
<!-- n7&#45;&gt;n2 -->
<g id="edge34" class="edge">
<title>n7:&#45;&gt;n2:</title>
<path fill="none" stroke="#8b0000" d="M2075.65,-937.24C2097.61,-956.71 2133.47,-988.51 2157.91,-1010.19"/>
<polygon fill="#8b0000" stroke="#8b0000" points="2155.61,-1012.82 2165.42,-1016.84 2160.26,-1007.59 2155.61,-1012.82"/>
<text text-anchor="middle" x="2130.21" y="-971" font-family="Times New Roman,serif" font-size="10.00" fill="red">used</text>
</g>
<!-- n11 -->
<g id="node21" class="node">
<title>n11</title>
<g id="a_node21"><a xlink:href="http://bioprov.poli.usp.br/param/hasCoordinate" xlink:title="bioprov.poli.usp.br1:">
<ellipse fill="#fffc87" stroke="#808080" cx="1991.21" cy="-1034.5" rx="87.99" ry="18"/>
<text text-anchor="middle" x="1991.21" y="-1030.8" font-family="Times New Roman,serif" font-size="14.00">bioprov.poli.usp.br1:</text>
</a>
</g>
</g>
<!-- n7&#45;&gt;n11 -->
<g id="edge26" class="edge">
<title>n7:&#45;&gt;n11:</title>
<path fill="none" stroke="#8b0000" d="M2046.33,-937.24C2035.63,-955.93 2018.43,-985.97 2006.08,-1007.53"/>
<polygon fill="#8b0000" stroke="#8b0000" points="2002.89,-1006.05 2000.96,-1016.47 2008.97,-1009.53 2002.89,-1006.05"/>
<text text-anchor="middle" x="2038.21" y="-971" font-family="Times New Roman,serif" font-size="10.00" fill="red">used</text>
</g>
<!-- n14 -->
<g id="node27" class="node">
<title>n14</title>
<g id="a_node27"><a xlink:href="https://gitlab.com/daniellins/R_functions/blob/master/SDM_R_functions.R" xlink:title="gitlab.com:">
<ellipse fill="#fffc87" stroke="#808080" cx="1835.21" cy="-1034.5" rx="50.89" ry="18"/>
<text text-anchor="middle" x="1835.21" y="-1030.8" font-family="Times New Roman,serif" font-size="14.00">gitlab.com:</text>
</a>
</g>
</g>
<!-- n7&#45;&gt;n14 -->
<g id="edge32" class="edge">
<title>n7:&#45;&gt;n14:</title>
<path fill="none" stroke="#8b0000" d="M2017.31,-937.03C1984.12,-951.91 1935.36,-974.58 1894.21,-997 1885.26,-1001.88 1875.78,-1007.52 1867.1,-1012.88"/>
<polygon fill="#8b0000" stroke="#8b0000" points="1865.01,-1010.06 1858.4,-1018.33 1868.73,-1015.99 1865.01,-1010.06"/>
<text text-anchor="middle" x="1957.21" y="-971" font-family="Times New Roman,serif" font-size="10.00" fill="red">used</text>
</g>
<!-- n17 -->
<g id="node33" class="node">
<title>n17</title>
<g id="a_node33"><a xlink:href="http://bioprov.poli.usp.br/param/hasGeospatialIssue" xlink:title="bioprov.poli.usp.br10:">
<ellipse fill="#fffc87" stroke="#808080" cx="2575.21" cy="-1034.5" rx="92.08" ry="18"/>
<text text-anchor="middle" x="2575.21" y="-1030.8" font-family="Times New Roman,serif" font-size="14.00">bioprov.poli.usp.br10:</text>
</a>
</g>
</g>
<!-- n7&#45;&gt;n17 -->
<g id="edge31" class="edge">
<title>n7:&#45;&gt;n17:</title>
<path fill="none" stroke="#8b0000" d="M2096.35,-937.03C2108.93,-941.83 2122.98,-946.64 2136.21,-950 2209.71,-968.65 2400.59,-978.79 2474.21,-997 2492.21,-1001.45 2511.47,-1007.96 2528.3,-1014.25"/>
<polygon fill="#8b0000" stroke="#8b0000" points="2527.3,-1017.61 2537.89,-1017.91 2529.8,-1011.07 2527.3,-1017.61"/>
<text text-anchor="middle" x="2363.21" y="-971" font-family="Times New Roman,serif" font-size="10.00" fill="red">used</text>
</g>
<!-- n19 -->
<g id="node37" class="node">
<title>n19</title>
<g id="a_node37"><a xlink:href="http://bioprov.poli.usp.br/param/country" xlink:title="bioprov.poli.usp.br3:">
<ellipse fill="#fffc87" stroke="#808080" cx="2377.21" cy="-1034.5" rx="87.99" ry="18"/>
<text text-anchor="middle" x="2377.21" y="-1030.8" font-family="Times New Roman,serif" font-size="14.00">bioprov.poli.usp.br3:</text>
</a>
</g>
</g>
<!-- n7&#45;&gt;n19 -->
<g id="edge29" class="edge">
<title>n7:&#45;&gt;n19:</title>
<path fill="none" stroke="#8b0000" d="M2100.51,-937.02C2112.09,-941.36 2124.58,-945.94 2136.21,-950 2200.16,-972.34 2217.3,-974.51 2281.21,-997 2296.8,-1002.49 2313.68,-1008.79 2328.88,-1014.59"/>
<polygon fill="#8b0000" stroke="#8b0000" points="2328.01,-1018 2338.6,-1018.32 2330.52,-1011.47 2328.01,-1018"/>
<text text-anchor="middle" x="2236.21" y="-971" font-family="Times New Roman,serif" font-size="10.00" fill="red">used</text>
</g>
<!-- ann7 -->
<g id="node14" class="node">
<title>ann7</title>
<polygon fill="none" stroke="gray" points="2493.21,-828 2187.21,-828 2187.21,-779 2499.21,-779 2499.21,-822 2493.21,-828"/>
<polyline fill="none" stroke="gray" points="2493.21,-828 2493.21,-822 "/>
<polyline fill="none" stroke="gray" points="2499.21,-822 2493.21,-822 "/>
<g id="a_node14_23"><a xlink:href="http://purl.org/dc/terms/created" xlink:title="&lt;TABLE&gt;">
<text text-anchor="start" x="2197.21" y="-813.5" font-family="Times New Roman,serif" font-size="10.00">dcterms:created</text>
</a>
</g>
<text text-anchor="start" x="2263.21" y="-813.5" font-family="Times New Roman,serif" font-size="10.00">2021&#45;02&#45;21 12:18:31</text>
<g id="a_node14_24"><a xlink:href="http://purl.org/dc/terms/title" xlink:title="&lt;TABLE&gt;">
<text text-anchor="start" x="2197.21" y="-800.5" font-family="Times New Roman,serif" font-size="10.00">dcterms:title</text>
</a>
</g>
<text text-anchor="start" x="2263.21" y="-800.5" font-family="Times New Roman,serif" font-size="10.00">Retrieving and Preparing Occurrence Records from GBIF</text>
<g id="a_node14_25"><a xlink:href="http://purl.org/dc/terms/type" xlink:title="&lt;TABLE&gt;">
<text text-anchor="start" x="2197.21" y="-787.5" font-family="Times New Roman,serif" font-size="10.00">dcterms:type</text>
</a>
</g>
<text text-anchor="start" x="2263.21" y="-787.5" font-family="Times New Roman,serif" font-size="10.00">Acquisition</text>
</g>
<!-- ann7&#45;&gt;n7 -->
<g id="edge7" class="edge">
<title>ann7:&#45;&gt;n7:</title>
<path fill="none" stroke="gray" stroke-dasharray="5,2" d="M2283.74,-828.02C2228.74,-849.77 2148.3,-881.58 2099.26,-900.97"/>
</g>
<!-- ann8 -->
<g id="node16" class="node">
<title>ann8</title>
<polygon fill="none" stroke="gray" points="1472.71,-841 233.71,-841 233.71,-766 1478.71,-766 1478.71,-835 1472.71,-841"/>
<polyline fill="none" stroke="gray" points="1472.71,-841 1472.71,-835 "/>
<polyline fill="none" stroke="gray" points="1478.71,-835 1472.71,-835 "/>
<g id="a_node16_26"><a xlink:href="http://purl.org/dc/terms/created" xlink:title="&lt;TABLE&gt;">
<text text-anchor="start" x="244.21" y="-826.5" font-family="Times New Roman,serif" font-size="10.00">dcterms:created</text>
</a>
</g>
<text text-anchor="start" x="325.21" y="-826.5" font-family="Times New Roman,serif" font-size="10.00">2021&#45;02&#45;21 12:18:08</text>
<g id="a_node16_27"><a xlink:href="http://purl.org/dc/terms/description" xlink:title="&lt;TABLE&gt;">
<text text-anchor="start" x="244.21" y="-813.5" font-family="Times New Roman,serif" font-size="10.00">dcterms:description</text>
</a>
</g>
<text text-anchor="start" x="325.21" y="-813.5" font-family="Times New Roman,serif" font-size="10.00">International Agricultural Development Robert Hijmans studies international agricultural development and human health. He is particularly interested in the role of biodiversity in agriculture, and in climate change. He specializes in spatial analysis, ecological modeling and geo&#45;informatics.</text>
<g id="a_node16_28"><a xlink:href="http://purl.org/dc/terms/type" xlink:title="&lt;TABLE&gt;">
<text text-anchor="start" x="244.21" y="-800.5" font-family="Times New Roman,serif" font-size="10.00">dcterms:type</text>
</a>
</g>
<text text-anchor="start" x="325.21" y="-800.5" font-family="Times New Roman,serif" font-size="10.00">Institution</text>
<g id="a_node16_29"><a xlink:href="http://xmlns.com/foaf/0.1/homepage" xlink:title="&lt;TABLE&gt;">
<text text-anchor="start" x="244.21" y="-787.5" font-family="Times New Roman,serif" font-size="10.00">foaf:homepage</text>
</a>
</g>
<text text-anchor="start" x="325.21" y="-787.5" font-family="Times New Roman,serif" font-size="10.00">http://desp.ucdavis.edu/people/robert&#45;j&#45;hijmans</text>
<g id="a_node16_30"><a xlink:href="http://xmlns.com/foaf/0.1/name" xlink:title="&lt;TABLE&gt;">
<text text-anchor="start" x="244.21" y="-774.5" font-family="Times New Roman,serif" font-size="10.00">foaf:name</text>
</a>
</g>
<text text-anchor="start" x="325.21" y="-774.5" font-family="Times New Roman,serif" font-size="10.00">Environmental Science &amp; Policy</text>
</g>
<!-- ann8&#45;&gt;n8 -->
<g id="edge8" class="edge">
<title>ann8:&#45;&gt;n8:</title>
<path fill="none" stroke="gray" stroke-dasharray="5,2" d="M791.18,-841.04C752.66,-862.68 706.11,-888.84 678.39,-904.41"/>
</g>
<!-- n9 -->
<g id="node17" class="node">
<title>n9</title>
<g id="a_node17"><a xlink:href="http://bioprov.poli.usp.br/models/ziziphusJuazeiro" xlink:title="bioprov.poli.usp.br:">
<ellipse fill="#fffc87" stroke="#808080" cx="3104.21" cy="-136.5" rx="83.39" ry="18"/>
<text text-anchor="middle" x="3104.21" y="-132.8" font-family="Times New Roman,serif" font-size="14.00">bioprov.poli.usp.br:</text>
</a>
</g>
</g>
<!-- n9&#45;&gt;n4 -->
<g id="edge35" class="edge">
<title>n9:&#45;&gt;n4:</title>
<path fill="none" stroke="#fed37f" d="M3131.87,-153.52C3167.57,-174.19 3229.6,-210.11 3267.56,-232.1"/>
<polygon fill="#fed37f" stroke="#fed37f" points="3266.26,-235.39 3276.67,-237.37 3269.77,-229.33 3266.26,-235.39"/>
<text text-anchor="middle" x="3248.21" y="-195" font-family="Times New Roman,serif" font-size="10.00">wasAttributedTo</text>
</g>
<!-- n9&#45;&gt;n18 -->
<g id="edge44" class="edge">
<title>n9:&#45;&gt;n18:</title>
<path fill="none" stroke="#fed37f" d="M3110.63,-154.53C3118.33,-176.49 3130.21,-216.03 3130.21,-251 3130.21,-251 3130.21,-251 3130.21,-1035.5 3130.21,-1073.22 3105.96,-1111.07 3088.05,-1133.9"/>
<polygon fill="#fed37f" stroke="#fed37f" points="3085.15,-1131.91 3081.55,-1141.88 3090.58,-1136.33 3085.15,-1131.91"/>
<text text-anchor="middle" x="3165.21" y="-618" font-family="Times New Roman,serif" font-size="10.00">wasAttributedTo</text>
</g>
<!-- n21 -->
<g id="node41" class="node">
<title>n21</title>
<g id="a_node41"><a xlink:href="http://bioprov.poli.usp.br/Improvement" xlink:title="bioprov.poli.usp.br11:">
<polygon fill="#9fb1fc" stroke="#0000ff" points="3094.21,-270 2952.21,-270 2952.21,-234 3094.21,-234 3094.21,-270"/>
<text text-anchor="middle" x="3023.21" y="-248.3" font-family="Times New Roman,serif" font-size="14.00">bioprov.poli.usp.br11:</text>
</a>
</g>
</g>
<!-- n9&#45;&gt;n21 -->
<g id="edge52" class="edge">
<title>n9:&#45;&gt;n21:</title>
<path fill="none" stroke="darkgreen" d="M3083.56,-154C3072.01,-164.04 3058.01,-177.67 3048.21,-192 3041.5,-201.81 3036.03,-213.71 3031.94,-224.25"/>
<polygon fill="darkgreen" stroke="darkgreen" points="3028.59,-223.22 3028.45,-233.82 3035.17,-225.62 3028.59,-223.22"/>
<text text-anchor="middle" x="3082.21" y="-195" font-family="Times New Roman,serif" font-size="10.00" fill="darkgreen">wasGeneratedBy</text>
</g>
<!-- b2 -->
<g id="node48" class="node">
<title>b2</title>
<ellipse fill="gray" stroke="gray" cx="2617.21" cy="-252" rx="1.8" ry="1.8"/>
</g>
<!-- n9&#45;&gt;b2 -->
<g id="edge47" class="edge">
<title>n9:&#45;&gt;b2:</title>
<path fill="none" stroke="black" d="M3070.82,-153.14C3053.65,-160.57 3032.19,-168.9 3012.21,-174 2928.9,-195.25 2695.56,-167.58 2628.21,-221 2618.47,-228.72 2617.35,-245.9 2617.22,-250.07"/>
<text text-anchor="middle" x="2750.21" y="-195" font-family="Times New Roman,serif" font-size="10.00">wasDerivedFrom</text>
</g>
<!-- ann9 -->
<g id="node18" class="node">
<title>ann9</title>
<polygon fill="none" stroke="gray" points="3300.71,-62 2901.71,-62 2901.71,0 3306.71,0 3306.71,-56 3300.71,-62"/>
<polyline fill="none" stroke="gray" points="3300.71,-62 3300.71,-56 "/>
<polyline fill="none" stroke="gray" points="3306.71,-56 3300.71,-56 "/>
<g id="a_node18_31"><a xlink:href="http://purl.org/dc/terms/created" xlink:title="&lt;TABLE&gt;">
<text text-anchor="start" x="2912.21" y="-48" font-family="Times New Roman,serif" font-size="10.00">dcterms:created</text>
</a>
</g>
<text text-anchor="start" x="2978.21" y="-48" font-family="Times New Roman,serif" font-size="10.00">2021&#45;02&#45;21 12:19:27</text>
<g id="a_node18_32"><a xlink:href="http://purl.org/dc/terms/source" xlink:title="&lt;TABLE&gt;">
<text text-anchor="start" x="2912.21" y="-35" font-family="Times New Roman,serif" font-size="10.00">dcterms:source</text>
</a>
</g>
<text text-anchor="start" x="2978.21" y="-35" font-family="Times New Roman,serif" font-size="10.00">https://gitlab.com/daniellins/R_functions/blob/master/ENM_result_ziziphus.jpg</text>
<g id="a_node18_33"><a xlink:href="http://purl.org/dc/terms/title" xlink:title="&lt;TABLE&gt;">
<text text-anchor="start" x="2912.21" y="-22" font-family="Times New Roman,serif" font-size="10.00">dcterms:title</text>
</a>
</g>
<text text-anchor="start" x="2978.21" y="-22" font-family="Times New Roman,serif" font-size="10.00">Map with the final result of SDM experiment</text>
<g id="a_node18_34"><a xlink:href="http://purl.org/dc/terms/type" xlink:title="&lt;TABLE&gt;">
<text text-anchor="start" x="2912.21" y="-9" font-family="Times New Roman,serif" font-size="10.00">dcterms:type</text>
</a>
</g>
<text text-anchor="start" x="2978.21" y="-9" font-family="Times New Roman,serif" font-size="10.00">rasterLayer</text>
</g>
<!-- ann9&#45;&gt;n9 -->
<g id="edge9" class="edge">
<title>ann9:&#45;&gt;n9:</title>
<path fill="none" stroke="gray" stroke-dasharray="5,2" d="M3104.21,-62.21C3104.21,-80.47 3104.21,-103.08 3104.21,-118.32"/>
</g>
<!-- n10 -->
<g id="node19" class="node">
<title>n10</title>
<g id="a_node19"><a xlink:href="http://www.worldclim.org/" xlink:title="www.worldclim.org:">
<polygon fill="#fed37f" stroke="black" points="2967.69,-924.56 2862.21,-937 2756.72,-924.56 2756.82,-904.44 2967.59,-904.44 2967.69,-924.56"/>
<text text-anchor="middle" x="2862.21" y="-915.3" font-family="Times New Roman,serif" font-size="14.00">www.worldclim.org:</text>
</a>
</g>
</g>
<!-- ann10 -->
<g id="node20" class="node">
<title>ann10</title>
<polygon fill="none" stroke="gray" points="3035.21,-841 2749.21,-841 2749.21,-766 3041.21,-766 3041.21,-835 3035.21,-841"/>
<polyline fill="none" stroke="gray" points="3035.21,-841 3035.21,-835 "/>
<polyline fill="none" stroke="gray" points="3041.21,-835 3035.21,-835 "/>
<g id="a_node20_35"><a xlink:href="http://purl.org/dc/terms/created" xlink:title="&lt;TABLE&gt;">
<text text-anchor="start" x="2759.21" y="-826.5" font-family="Times New Roman,serif" font-size="10.00">dcterms:created</text>
</a>
</g>
<text text-anchor="start" x="2840.21" y="-826.5" font-family="Times New Roman,serif" font-size="10.00">2021&#45;02&#45;21 12:18:08</text>
<g id="a_node20_36"><a xlink:href="http://purl.org/dc/terms/description" xlink:title="&lt;TABLE&gt;">
<text text-anchor="start" x="2759.21" y="-813.5" font-family="Times New Roman,serif" font-size="10.00">dcterms:description</text>
</a>
</g>
<text text-anchor="start" x="2840.21" y="-813.5" font-family="Times New Roman,serif" font-size="10.00">Environmental Layers from WorldClim Website.</text>
<g id="a_node20_37"><a xlink:href="http://purl.org/dc/terms/type" xlink:title="&lt;TABLE&gt;">
<text text-anchor="start" x="2759.21" y="-800.5" font-family="Times New Roman,serif" font-size="10.00">dcterms:type</text>
</a>
</g>
<text text-anchor="start" x="2840.21" y="-800.5" font-family="Times New Roman,serif" font-size="10.00">Institution</text>
<g id="a_node20_38"><a xlink:href="http://xmlns.com/foaf/0.1/homepage" xlink:title="&lt;TABLE&gt;">
<text text-anchor="start" x="2759.21" y="-787.5" font-family="Times New Roman,serif" font-size="10.00">foaf:homepage</text>
</a>
</g>
<text text-anchor="start" x="2840.21" y="-787.5" font-family="Times New Roman,serif" font-size="10.00">http://www.worldclim.org/</text>
<g id="a_node20_39"><a xlink:href="http://xmlns.com/foaf/0.1/name" xlink:title="&lt;TABLE&gt;">
<text text-anchor="start" x="2759.21" y="-774.5" font-family="Times New Roman,serif" font-size="10.00">foaf:name</text>
</a>
</g>
<text text-anchor="start" x="2840.21" y="-774.5" font-family="Times New Roman,serif" font-size="10.00">Environmental Layers from WorldClim Website.</text>
</g>
<!-- ann10&#45;&gt;n10 -->
<g id="edge10" class="edge">
<title>ann10:&#45;&gt;n10:</title>
<path fill="none" stroke="gray" stroke-dasharray="5,2" d="M2884.58,-841.04C2878.29,-862.68 2870.69,-888.84 2866.16,-904.41"/>
</g>
<!-- ann11 -->
<g id="node22" class="node">
<title>ann11</title>
<polygon fill="none" stroke="gray" points="1961.21,-943.5 1805.21,-943.5 1805.21,-894.5 1967.21,-894.5 1967.21,-937.5 1961.21,-943.5"/>
<polyline fill="none" stroke="gray" points="1961.21,-943.5 1961.21,-937.5 "/>
<polyline fill="none" stroke="gray" points="1967.21,-937.5 1961.21,-937.5 "/>
<g id="a_node22_40"><a xlink:href="http://purl.org/dc/terms/created" xlink:title="&lt;TABLE&gt;">
<text text-anchor="start" x="1815.21" y="-929" font-family="Times New Roman,serif" font-size="10.00">dcterms:created</text>
</a>
</g>
<text text-anchor="start" x="1881.21" y="-929" font-family="Times New Roman,serif" font-size="10.00">2021&#45;02&#45;21 12:18:21</text>
<g id="a_node22_41"><a xlink:href="http://purl.org/dc/terms/type" xlink:title="&lt;TABLE&gt;">
<text text-anchor="start" x="1815.21" y="-916" font-family="Times New Roman,serif" font-size="10.00">dcterms:type</text>
</a>
</g>
<text text-anchor="start" x="1881.21" y="-916" font-family="Times New Roman,serif" font-size="10.00">InputParameter</text>
<g id="a_node22_42"><a xlink:href="http://www.w3.org/1999/02/22-rdf-syntax-ns#value" xlink:title="&lt;TABLE&gt;">
<text text-anchor="start" x="1815.21" y="-903" font-family="Times New Roman,serif" font-size="10.00">rdf:value</text>
</a>
</g>
<text text-anchor="start" x="1881.21" y="-903" font-family="Times New Roman,serif" font-size="10.00">TRUE</text>
</g>
<!-- ann11&#45;&gt;n11 -->
<g id="edge11" class="edge">
<title>ann11:&#45;&gt;n11:</title>
<path fill="none" stroke="gray" stroke-dasharray="5,2" d="M1907.96,-943.52C1928.15,-965.33 1957.69,-997.27 1975.61,-1016.65"/>
</g>
<!-- n12&#45;&gt;n1 -->
<g id="edge30" class="edge">
<title>n12:&#45;&gt;n1:</title>
<path fill="none" stroke="#8b0000" d="M2334.73,-481.68C2347.48,-487.82 2361.97,-494.75 2375.21,-501 2410.69,-517.75 2450.99,-536.42 2481.17,-550.34"/>
<polygon fill="#8b0000" stroke="#8b0000" points="2480.05,-553.68 2490.59,-554.69 2482.98,-547.32 2480.05,-553.68"/>
<text text-anchor="middle" x="2444.21" y="-522" font-family="Times New Roman,serif" font-size="10.00" fill="red">used</text>
</g>
<!-- n12&#45;&gt;n6 -->
<g id="edge25" class="edge">
<title>n12:&#45;&gt;n6:</title>
<path fill="none" stroke="#8b0000" d="M2231.24,-469.77C2004.39,-487.36 1272.91,-544.08 1012.41,-564.27"/>
<polygon fill="#8b0000" stroke="#8b0000" points="1011.92,-560.8 1002.22,-565.06 1012.46,-567.78 1011.92,-560.8"/>
<text text-anchor="middle" x="1578.21" y="-522" font-family="Times New Roman,serif" font-size="10.00" fill="red">used</text>
</g>
<!-- ann12 -->
<g id="node24" class="node">
<title>ann12</title>
<polygon fill="none" stroke="gray" points="2389.21,-379 2203.21,-379 2203.21,-330 2395.21,-330 2395.21,-373 2389.21,-379"/>
<polyline fill="none" stroke="gray" points="2389.21,-379 2389.21,-373 "/>
<polyline fill="none" stroke="gray" points="2395.21,-373 2389.21,-373 "/>
<g id="a_node24_43"><a xlink:href="http://purl.org/dc/terms/created" xlink:title="&lt;TABLE&gt;">
<text text-anchor="start" x="2213.21" y="-364.5" font-family="Times New Roman,serif" font-size="10.00">dcterms:created</text>
</a>
</g>
<text text-anchor="start" x="2279.21" y="-364.5" font-family="Times New Roman,serif" font-size="10.00">2021&#45;02&#45;21 12:19:19</text>
<g id="a_node24_44"><a xlink:href="http://purl.org/dc/terms/title" xlink:title="&lt;TABLE&gt;">
<text text-anchor="start" x="2213.21" y="-351.5" font-family="Times New Roman,serif" font-size="10.00">dcterms:title</text>
</a>
</g>
<text text-anchor="start" x="2279.21" y="-351.5" font-family="Times New Roman,serif" font-size="10.00">Projecting model on a map</text>
<g id="a_node24_45"><a xlink:href="http://purl.org/dc/terms/type" xlink:title="&lt;TABLE&gt;">
<text text-anchor="start" x="2213.21" y="-338.5" font-family="Times New Roman,serif" font-size="10.00">dcterms:type</text>
</a>
</g>
<text text-anchor="start" x="2279.21" y="-338.5" font-family="Times New Roman,serif" font-size="10.00">Projecting</text>
</g>
<!-- ann12&#45;&gt;n12 -->
<g id="edge12" class="edge">
<title>ann12:&#45;&gt;n12:</title>
<path fill="none" stroke="gray" stroke-dasharray="5,2" d="M2299.21,-379.25C2299.21,-399.32 2299.21,-427.58 2299.21,-445.47"/>
</g>
<!-- n13 -->
<g id="node25" class="node">
<title>n13</title>
<g id="a_node25"><a xlink:href="http://cran.rstudio.com/web/packages/rgbif" xlink:title="cran.rstudio.com:">
<ellipse fill="#fffc87" stroke="#808080" cx="1929.21" cy="-1268.5" rx="74.99" ry="18"/>
<text text-anchor="middle" x="1929.21" y="-1264.8" font-family="Times New Roman,serif" font-size="14.00">cran.rstudio.com:</text>
</a>
</g>
</g>
<!-- n16 -->
<g id="node31" class="node">
<title>n16</title>
<g id="a_node31"><a xlink:href="http://ropensci.org/" xlink:title="ropensci.org:">
<polygon fill="#fed37f" stroke="black" points="2214.31,-1376.56 2142.21,-1389 2070.1,-1376.56 2070.17,-1356.44 2214.25,-1356.44 2214.31,-1376.56"/>
<text text-anchor="middle" x="2142.21" y="-1367.3" font-family="Times New Roman,serif" font-size="14.00">ropensci.org:</text>
</a>
</g>
</g>
<!-- n13&#45;&gt;n16 -->
<g id="edge42" class="edge">
<title>n13:&#45;&gt;n16:</title>
<path fill="none" stroke="#fed37f" d="M1961.56,-1284.76C1999.89,-1302.85 2063.65,-1332.94 2104.27,-1352.1"/>
<polygon fill="#fed37f" stroke="#fed37f" points="2102.78,-1355.27 2113.32,-1356.37 2105.77,-1348.94 2102.78,-1355.27"/>
<text text-anchor="middle" x="2103.21" y="-1327" font-family="Times New Roman,serif" font-size="10.00">wasAttributedTo</text>
</g>
<!-- ann13 -->
<g id="node26" class="node">
<title>ann13</title>
<polygon fill="none" stroke="gray" points="2187.71,-1194 1854.71,-1194 1854.71,-1119 2193.71,-1119 2193.71,-1188 2187.71,-1194"/>
<polyline fill="none" stroke="gray" points="2187.71,-1194 2187.71,-1188 "/>
<polyline fill="none" stroke="gray" points="2193.71,-1188 2187.71,-1188 "/>
<g id="a_node26_46"><a xlink:href="http://purl.org/dc/terms/created" xlink:title="&lt;TABLE&gt;">
<text text-anchor="start" x="1865.21" y="-1179.5" font-family="Times New Roman,serif" font-size="10.00">dcterms:created</text>
</a>
</g>
<text text-anchor="start" x="1946.21" y="-1179.5" font-family="Times New Roman,serif" font-size="10.00">2021&#45;02&#45;21 12:18:13</text>
<g id="a_node26_47"><a xlink:href="http://purl.org/dc/terms/description" xlink:title="&lt;TABLE&gt;">
<text text-anchor="start" x="1865.21" y="-1166.5" font-family="Times New Roman,serif" font-size="10.00">dcterms:description</text>
</a>
</g>
<text text-anchor="start" x="1946.21" y="-1166.5" font-family="Times New Roman,serif" font-size="10.00">Interface to the Global Biodiversity Information Facility API</text>
<g id="a_node26_48"><a xlink:href="http://purl.org/dc/terms/source" xlink:title="&lt;TABLE&gt;">
<text text-anchor="start" x="1865.21" y="-1153.5" font-family="Times New Roman,serif" font-size="10.00">dcterms:source</text>
</a>
</g>
<text text-anchor="start" x="1946.21" y="-1153.5" font-family="Times New Roman,serif" font-size="10.00">http://cran.rstudio.com/web/packages/rgbif/</text>
<g id="a_node26_49"><a xlink:href="http://purl.org/dc/terms/title" xlink:title="&lt;TABLE&gt;">
<text text-anchor="start" x="1865.21" y="-1140.5" font-family="Times New Roman,serif" font-size="10.00">dcterms:title</text>
</a>
</g>
<text text-anchor="start" x="1946.21" y="-1140.5" font-family="Times New Roman,serif" font-size="10.00">rgibf</text>
<g id="a_node26_50"><a xlink:href="http://purl.org/dc/terms/type" xlink:title="&lt;TABLE&gt;">
<text text-anchor="start" x="1865.21" y="-1127.5" font-family="Times New Roman,serif" font-size="10.00">dcterms:type</text>
</a>
</g>
<text text-anchor="start" x="1946.21" y="-1127.5" font-family="Times New Roman,serif" font-size="10.00">Software</text>
</g>
<!-- ann13&#45;&gt;n13 -->
<g id="edge13" class="edge">
<title>ann13:&#45;&gt;n13:</title>
<path fill="none" stroke="gray" stroke-dasharray="5,2" d="M1992.57,-1194.13C1976.06,-1213.25 1956.65,-1235.73 1943.7,-1250.71"/>
</g>
<!-- n14&#45;&gt;n18 -->
<g id="edge43" class="edge">
<title>n14:&#45;&gt;n18:</title>
<path fill="none" stroke="#fed37f" d="M1855.02,-1051.13C1865.94,-1058.84 1880.11,-1067.45 1894.21,-1072 1992.84,-1103.87 2672.23,-1137.63 2950.62,-1150.3"/>
<polygon fill="#fed37f" stroke="#fed37f" points="2950.61,-1153.8 2960.76,-1150.76 2950.93,-1146.81 2950.61,-1153.8"/>
<text text-anchor="middle" x="2152.21" y="-1093" font-family="Times New Roman,serif" font-size="10.00">wasAttributedTo</text>
</g>
<!-- b3 -->
<g id="node49" class="node">
<title>b3</title>
<ellipse fill="gray" stroke="gray" cx="1835.21" cy="-1156.5" rx="1.8" ry="1.8"/>
</g>
<!-- n14&#45;&gt;b3 -->
<g id="edge49" class="edge">
<title>n14:&#45;&gt;b3:</title>
<path fill="none" stroke="black" d="M1835.21,-1052.69C1835.21,-1083.54 1835.21,-1145.89 1835.21,-1154.5"/>
<text text-anchor="middle" x="1869.21" y="-1093" font-family="Times New Roman,serif" font-size="10.00">wasDerivedFrom</text>
</g>
<!-- ann14 -->
<g id="node28" class="node">
<title>ann14</title>
<polygon fill="none" stroke="gray" points="536.21,-950 154.21,-950 154.21,-888 542.21,-888 542.21,-944 536.21,-950"/>
<polyline fill="none" stroke="gray" points="536.21,-950 536.21,-944 "/>
<polyline fill="none" stroke="gray" points="542.21,-944 536.21,-944 "/>
<g id="a_node28_51"><a xlink:href="http://purl.org/dc/terms/created" xlink:title="&lt;TABLE&gt;">
<text text-anchor="start" x="164.21" y="-936" font-family="Times New Roman,serif" font-size="10.00">dcterms:created</text>
</a>
</g>
<text text-anchor="start" x="230.21" y="-936" font-family="Times New Roman,serif" font-size="10.00">2021&#45;02&#45;21 12:18:18</text>
<g id="a_node28_52"><a xlink:href="http://purl.org/dc/terms/source" xlink:title="&lt;TABLE&gt;">
<text text-anchor="start" x="164.21" y="-923" font-family="Times New Roman,serif" font-size="10.00">dcterms:source</text>
</a>
</g>
<text text-anchor="start" x="230.21" y="-923" font-family="Times New Roman,serif" font-size="10.00">https://gitlab.com/daniellins/R_functions/blob/master/SDM_R_functions.R</text>
<g id="a_node28_53"><a xlink:href="http://purl.org/dc/terms/title" xlink:title="&lt;TABLE&gt;">
<text text-anchor="start" x="164.21" y="-910" font-family="Times New Roman,serif" font-size="10.00">dcterms:title</text>
</a>
</g>
<text text-anchor="start" x="230.21" y="-910" font-family="Times New Roman,serif" font-size="10.00">GBIF data acquisition and preparation function</text>
<g id="a_node28_54"><a xlink:href="http://purl.org/dc/terms/type" xlink:title="&lt;TABLE&gt;">
<text text-anchor="start" x="164.21" y="-897" font-family="Times New Roman,serif" font-size="10.00">dcterms:type</text>
</a>
</g>
<text text-anchor="start" x="230.21" y="-897" font-family="Times New Roman,serif" font-size="10.00">Software</text>
</g>
<!-- ann14&#45;&gt;n14 -->
<g id="edge14" class="edge">
<title>ann14:&#45;&gt;n14:</title>
<path fill="none" stroke="gray" stroke-dasharray="5,2" d="M542.38,-949.04C545.34,-949.37 548.28,-949.69 551.21,-950 1029.91,-1000.85 1612.54,-1025.26 1784.91,-1031.71"/>
</g>
<!-- n15&#45;&gt;n8 -->
<g id="edge40" class="edge">
<title>n15:&#45;&gt;n8:</title>
<path fill="none" stroke="#fed37f" d="M166.88,-819.99C183.68,-827.37 204.67,-835.72 224.21,-841 365.95,-879.32 407.7,-856.95 551.21,-888 568.09,-891.65 586.26,-896.6 602.57,-901.42"/>
<polygon fill="#fed37f" stroke="#fed37f" points="601.87,-904.86 612.45,-904.39 603.89,-898.16 601.87,-904.86"/>
<text text-anchor="middle" x="462.21" y="-862" font-family="Times New Roman,serif" font-size="10.00">wasAttributedTo</text>
</g>
<!-- ann15 -->
<g id="node30" class="node">
<title>ann15</title>
<polygon fill="none" stroke="gray" points="374.71,-719 53.71,-719 53.71,-644 380.71,-644 380.71,-713 374.71,-719"/>
<polyline fill="none" stroke="gray" points="374.71,-719 374.71,-713 "/>
<polyline fill="none" stroke="gray" points="380.71,-713 374.71,-713 "/>
<g id="a_node30_55"><a xlink:href="http://purl.org/dc/terms/created" xlink:title="&lt;TABLE&gt;">
<text text-anchor="start" x="64.21" y="-704.5" font-family="Times New Roman,serif" font-size="10.00">dcterms:created</text>
</a>
</g>
<text text-anchor="start" x="130.21" y="-704.5" font-family="Times New Roman,serif" font-size="10.00">2021&#45;02&#45;21 12:18:51</text>
<g id="a_node30_56"><a xlink:href="http://purl.org/dc/terms/source" xlink:title="&lt;TABLE&gt;">
<text text-anchor="start" x="64.21" y="-691.5" font-family="Times New Roman,serif" font-size="10.00">dcterms:source</text>
</a>
</g>
<text text-anchor="start" x="130.21" y="-691.5" font-family="Times New Roman,serif" font-size="10.00">http://cran.r&#45;project.org/src/contrib/dismo_1.0&#45;15.tar.gz</text>
<g id="a_node30_57"><a xlink:href="http://purl.org/dc/terms/title" xlink:title="&lt;TABLE&gt;">
<text text-anchor="start" x="64.21" y="-678.5" font-family="Times New Roman,serif" font-size="10.00">dcterms:title</text>
</a>
</g>
<text text-anchor="start" x="130.21" y="-678.5" font-family="Times New Roman,serif" font-size="10.00">BIOCLIM implementation of DISMO package</text>
<g id="a_node30_58"><a xlink:href="http://purl.org/dc/terms/type" xlink:title="&lt;TABLE&gt;">
<text text-anchor="start" x="64.21" y="-665.5" font-family="Times New Roman,serif" font-size="10.00">dcterms:type</text>
</a>
</g>
<text text-anchor="start" x="130.21" y="-665.5" font-family="Times New Roman,serif" font-size="10.00">Software</text>
<g id="a_node30_59"><a xlink:href="http://www.w3.org/2000/01/rdf-schema#seeAlso" xlink:title="&lt;TABLE&gt;">
<text text-anchor="start" x="64.21" y="-652.5" font-family="Times New Roman,serif" font-size="10.00">rdfs:seeAlso</text>
</a>
</g>
<text text-anchor="start" x="130.21" y="-652.5" font-family="Times New Roman,serif" font-size="10.00">http://finzi.psych.upenn.edu/library/dismo/html/bioclim.html</text>
</g>
<!-- ann15&#45;&gt;n15 -->
<g id="edge15" class="edge">
<title>ann15:&#45;&gt;n15:</title>
<path fill="none" stroke="gray" stroke-dasharray="5,2" d="M191.85,-719.16C176.6,-741.21 157.89,-768.25 146.01,-785.43"/>
</g>
<!-- ann16 -->
<g id="node32" class="node">
<title>ann16</title>
<polygon fill="none" stroke="gray" points="2682.21,-1306 2022.21,-1306 2022.21,-1231 2688.21,-1231 2688.21,-1300 2682.21,-1306"/>
<polyline fill="none" stroke="gray" points="2682.21,-1306 2682.21,-1300 "/>
<polyline fill="none" stroke="gray" points="2688.21,-1300 2682.21,-1300 "/>
<g id="a_node32_60"><a xlink:href="http://purl.org/dc/terms/created" xlink:title="&lt;TABLE&gt;">
<text text-anchor="start" x="2032.21" y="-1291.5" font-family="Times New Roman,serif" font-size="10.00">dcterms:created</text>
</a>
</g>
<text text-anchor="start" x="2113.21" y="-1291.5" font-family="Times New Roman,serif" font-size="10.00">2021&#45;02&#45;21 12:18:00</text>
<g id="a_node32_61"><a xlink:href="http://purl.org/dc/terms/description" xlink:title="&lt;TABLE&gt;">
<text text-anchor="start" x="2032.21" y="-1278.5" font-family="Times New Roman,serif" font-size="10.00">dcterms:description</text>
</a>
</g>
<text text-anchor="start" x="2113.21" y="-1278.5" font-family="Times New Roman,serif" font-size="10.00">Help develop R packages for the sciences via community driven learning, review and maintenance of contributed software in the R ecosystem</text>
<g id="a_node32_62"><a xlink:href="http://purl.org/dc/terms/type" xlink:title="&lt;TABLE&gt;">
<text text-anchor="start" x="2032.21" y="-1265.5" font-family="Times New Roman,serif" font-size="10.00">dcterms:type</text>
</a>
</g>
<text text-anchor="start" x="2113.21" y="-1265.5" font-family="Times New Roman,serif" font-size="10.00">Institution</text>
<g id="a_node32_63"><a xlink:href="http://xmlns.com/foaf/0.1/homepage" xlink:title="&lt;TABLE&gt;">
<text text-anchor="start" x="2032.21" y="-1252.5" font-family="Times New Roman,serif" font-size="10.00">foaf:homepage</text>
</a>
</g>
<text text-anchor="start" x="2113.21" y="-1252.5" font-family="Times New Roman,serif" font-size="10.00">http://ropensci.org/</text>
<g id="a_node32_64"><a xlink:href="http://xmlns.com/foaf/0.1/name" xlink:title="&lt;TABLE&gt;">
<text text-anchor="start" x="2032.21" y="-1239.5" font-family="Times New Roman,serif" font-size="10.00">foaf:name</text>
</a>
</g>
<text text-anchor="start" x="2113.21" y="-1239.5" font-family="Times New Roman,serif" font-size="10.00">ROpenSci</text>
</g>
<!-- ann16&#45;&gt;n16 -->
<g id="edge16" class="edge">
<title>ann16:&#45;&gt;n16:</title>
<path fill="none" stroke="gray" stroke-dasharray="5,2" d="M2277.71,-1306.07C2240.59,-1323.58 2198.4,-1343.49 2171.09,-1356.37"/>
</g>
<!-- ann17 -->
<g id="node34" class="node">
<title>ann17</title>
<polygon fill="none" stroke="gray" points="2661.21,-943.5 2505.21,-943.5 2505.21,-894.5 2667.21,-894.5 2667.21,-937.5 2661.21,-943.5"/>
<polyline fill="none" stroke="gray" points="2661.21,-943.5 2661.21,-937.5 "/>
<polyline fill="none" stroke="gray" points="2667.21,-937.5 2661.21,-937.5 "/>
<g id="a_node34_65"><a xlink:href="http://purl.org/dc/terms/created" xlink:title="&lt;TABLE&gt;">
<text text-anchor="start" x="2515.21" y="-929" font-family="Times New Roman,serif" font-size="10.00">dcterms:created</text>
</a>
</g>
<text text-anchor="start" x="2581.21" y="-929" font-family="Times New Roman,serif" font-size="10.00">2021&#45;02&#45;21 12:18:21</text>
<g id="a_node34_66"><a xlink:href="http://purl.org/dc/terms/type" xlink:title="&lt;TABLE&gt;">
<text text-anchor="start" x="2515.21" y="-916" font-family="Times New Roman,serif" font-size="10.00">dcterms:type</text>
</a>
</g>
<text text-anchor="start" x="2581.21" y="-916" font-family="Times New Roman,serif" font-size="10.00">InputParameter</text>
<g id="a_node34_67"><a xlink:href="http://www.w3.org/1999/02/22-rdf-syntax-ns#value" xlink:title="&lt;TABLE&gt;">
<text text-anchor="start" x="2515.21" y="-903" font-family="Times New Roman,serif" font-size="10.00">rdf:value</text>
</a>
</g>
<text text-anchor="start" x="2581.21" y="-903" font-family="Times New Roman,serif" font-size="10.00">FALSE</text>
</g>
<!-- ann17&#45;&gt;n17 -->
<g id="edge17" class="edge">
<title>ann17:&#45;&gt;n17:</title>
<path fill="none" stroke="gray" stroke-dasharray="5,2" d="M2583.93,-943.52C2581.83,-965.2 2578.75,-996.89 2576.87,-1016.3"/>
</g>
<!-- ann18 -->
<g id="node36" class="node">
<title>ann18</title>
<polygon fill="none" stroke="gray" points="3393.71,-1072 3158.71,-1072 3158.71,-997 3399.71,-997 3399.71,-1066 3393.71,-1072"/>
<polyline fill="none" stroke="gray" points="3393.71,-1072 3393.71,-1066 "/>
<polyline fill="none" stroke="gray" points="3399.71,-1066 3393.71,-1066 "/>
<g id="a_node36_68"><a xlink:href="http://purl.org/dc/terms/created" xlink:title="&lt;TABLE&gt;">
<text text-anchor="start" x="3169.21" y="-1057.5" font-family="Times New Roman,serif" font-size="10.00">dcterms:created</text>
</a>
</g>
<text text-anchor="start" x="3235.21" y="-1057.5" font-family="Times New Roman,serif" font-size="10.00">2021&#45;02&#45;21 12:15:36</text>
<g id="a_node36_69"><a xlink:href="http://purl.org/dc/terms/type" xlink:title="&lt;TABLE&gt;">
<text text-anchor="start" x="3169.21" y="-1044.5" font-family="Times New Roman,serif" font-size="10.00">dcterms:type</text>
</a>
</g>
<text text-anchor="start" x="3235.21" y="-1044.5" font-family="Times New Roman,serif" font-size="10.00">Researcher</text>
<g id="a_node36_70"><a xlink:href="http://xmlns.com/foaf/0.1/mbox" xlink:title="&lt;TABLE&gt;">
<text text-anchor="start" x="3169.21" y="-1031.5" font-family="Times New Roman,serif" font-size="10.00">foaf:mbox</text>
</a>
</g>
<text text-anchor="start" x="3235.21" y="-1031.5" font-family="Times New Roman,serif" font-size="10.00">mailto:daniellins@usp.br</text>
<g id="a_node36_71"><a xlink:href="http://xmlns.com/foaf/0.1/name" xlink:title="&lt;TABLE&gt;">
<text text-anchor="start" x="3169.21" y="-1018.5" font-family="Times New Roman,serif" font-size="10.00">foaf:name</text>
</a>
</g>
<text text-anchor="start" x="3235.21" y="-1018.5" font-family="Times New Roman,serif" font-size="10.00">Daniel Lins da Silva</text>
<g id="a_node36_72"><a xlink:href="http://www.w3.org/2000/01/rdf-schema#seeAlso" xlink:title="&lt;TABLE&gt;">
<text text-anchor="start" x="3169.21" y="-1005.5" font-family="Times New Roman,serif" font-size="10.00">rdfs:seeAlso</text>
</a>
</g>
<text text-anchor="start" x="3235.21" y="-1005.5" font-family="Times New Roman,serif" font-size="10.00">http://lattes.cnpq.br/6502450550040226</text>
</g>
<!-- ann18&#45;&gt;n18 -->
<g id="edge18" class="edge">
<title>ann18:&#45;&gt;n18:</title>
<path fill="none" stroke="gray" stroke-dasharray="5,2" d="M3215.06,-1072.16C3173.81,-1095.73 3122.59,-1125 3093.12,-1141.83"/>
</g>
<!-- ann19 -->
<g id="node38" class="node">
<title>ann19</title>
<polygon fill="none" stroke="gray" points="2481.21,-943.5 2325.21,-943.5 2325.21,-894.5 2487.21,-894.5 2487.21,-937.5 2481.21,-943.5"/>
<polyline fill="none" stroke="gray" points="2481.21,-943.5 2481.21,-937.5 "/>
<polyline fill="none" stroke="gray" points="2487.21,-937.5 2481.21,-937.5 "/>
<g id="a_node38_73"><a xlink:href="http://purl.org/dc/terms/created" xlink:title="&lt;TABLE&gt;">
<text text-anchor="start" x="2335.21" y="-929" font-family="Times New Roman,serif" font-size="10.00">dcterms:created</text>
</a>
</g>
<text text-anchor="start" x="2401.21" y="-929" font-family="Times New Roman,serif" font-size="10.00">2021&#45;02&#45;21 12:18:21</text>
<g id="a_node38_74"><a xlink:href="http://purl.org/dc/terms/type" xlink:title="&lt;TABLE&gt;">
<text text-anchor="start" x="2335.21" y="-916" font-family="Times New Roman,serif" font-size="10.00">dcterms:type</text>
</a>
</g>
<text text-anchor="start" x="2401.21" y="-916" font-family="Times New Roman,serif" font-size="10.00">InputParameter</text>
<g id="a_node38_75"><a xlink:href="http://www.w3.org/1999/02/22-rdf-syntax-ns#value" xlink:title="&lt;TABLE&gt;">
<text text-anchor="start" x="2335.21" y="-903" font-family="Times New Roman,serif" font-size="10.00">rdf:value</text>
</a>
</g>
<text text-anchor="start" x="2401.21" y="-903" font-family="Times New Roman,serif" font-size="10.00">BR</text>
</g>
<!-- ann19&#45;&gt;n19 -->
<g id="edge19" class="edge">
<title>ann19:&#45;&gt;n19:</title>
<path fill="none" stroke="gray" stroke-dasharray="5,2" d="M2400.2,-943.52C2394.66,-965.2 2386.56,-996.89 2381.6,-1016.3"/>
</g>
<!-- n20&#45;&gt;n10 -->
<g id="edge39" class="edge">
<title>n20:&#45;&gt;n10:</title>
<path fill="none" stroke="#fed37f" d="M2674.12,-820.52C2714.35,-841.37 2784.49,-877.72 2826.81,-899.65"/>
<polygon fill="#fed37f" stroke="#fed37f" points="2825.42,-902.88 2835.91,-904.37 2828.64,-896.66 2825.42,-902.88"/>
<text text-anchor="middle" x="2800.21" y="-862" font-family="Times New Roman,serif" font-size="10.00">wasAttributedTo</text>
</g>
<!-- ann20 -->
<g id="node40" class="node">
<title>ann20</title>
<polygon fill="none" stroke="gray" points="2921.21,-719 2555.21,-719 2555.21,-644 2927.21,-644 2927.21,-713 2921.21,-719"/>
<polyline fill="none" stroke="gray" points="2921.21,-719 2921.21,-713 "/>
<polyline fill="none" stroke="gray" points="2927.21,-713 2921.21,-713 "/>
<g id="a_node40_76"><a xlink:href="http://purl.org/dc/terms/created" xlink:title="&lt;TABLE&gt;">
<text text-anchor="start" x="2565.21" y="-704.5" font-family="Times New Roman,serif" font-size="10.00">dcterms:created</text>
</a>
</g>
<text text-anchor="start" x="2646.21" y="-704.5" font-family="Times New Roman,serif" font-size="10.00">2021&#45;02&#45;21 12:18:47</text>
<g id="a_node40_77"><a xlink:href="http://purl.org/dc/terms/description" xlink:title="&lt;TABLE&gt;">
<text text-anchor="start" x="2565.21" y="-691.5" font-family="Times New Roman,serif" font-size="10.00">dcterms:description</text>
</a>
</g>
<text text-anchor="start" x="2646.21" y="-691.5" font-family="Times New Roman,serif" font-size="10.00">Environmental Layers from WorldClim Website.</text>
<g id="a_node40_78"><a xlink:href="http://purl.org/dc/terms/source" xlink:title="&lt;TABLE&gt;">
<text text-anchor="start" x="2565.21" y="-678.5" font-family="Times New Roman,serif" font-size="10.00">dcterms:source</text>
</a>
</g>
<text text-anchor="start" x="2646.21" y="-678.5" font-family="Times New Roman,serif" font-size="10.00">https://gitlab.com/daniellins/Prov_ENM_Ziziphus/tree/master/clima</text>
<g id="a_node40_79"><a xlink:href="http://purl.org/dc/terms/title" xlink:title="&lt;TABLE&gt;">
<text text-anchor="start" x="2565.21" y="-665.5" font-family="Times New Roman,serif" font-size="10.00">dcterms:title</text>
</a>
</g>
<text text-anchor="start" x="2646.21" y="-665.5" font-family="Times New Roman,serif" font-size="10.00">Worldclim Environmental Layers</text>
<g id="a_node40_80"><a xlink:href="http://purl.org/dc/terms/type" xlink:title="&lt;TABLE&gt;">
<text text-anchor="start" x="2565.21" y="-652.5" font-family="Times New Roman,serif" font-size="10.00">dcterms:type</text>
</a>
</g>
<text text-anchor="start" x="2646.21" y="-652.5" font-family="Times New Roman,serif" font-size="10.00">RasterLayer</text>
</g>
<!-- ann20&#45;&gt;n20 -->
<g id="edge20" class="edge">
<title>ann20:&#45;&gt;n20:</title>
<path fill="none" stroke="gray" stroke-dasharray="5,2" d="M2711.27,-719.16C2693.26,-741.21 2671.17,-768.25 2657.14,-785.43"/>
</g>
<!-- n21&#45;&gt;n3 -->
<g id="edge33" class="edge">
<title>n21:&#45;&gt;n3:</title>
<path fill="none" stroke="#8b0000" d="M2981.14,-270.05C2938.3,-287.41 2871.86,-314.33 2826.09,-332.88"/>
<polygon fill="#8b0000" stroke="#8b0000" points="2824.61,-329.7 2816.66,-336.7 2827.24,-336.19 2824.61,-329.7"/>
<text text-anchor="middle" x="2909.21" y="-304" font-family="Times New Roman,serif" font-size="10.00" fill="red">used</text>
</g>
<!-- ann21 -->
<g id="node42" class="node">
<title>ann21</title>
<polygon fill="none" stroke="gray" points="2996.71,-167.5 2591.71,-167.5 2591.71,-105.5 3002.71,-105.5 3002.71,-161.5 2996.71,-167.5"/>
<polyline fill="none" stroke="gray" points="2996.71,-167.5 2996.71,-161.5 "/>
<polyline fill="none" stroke="gray" points="3002.71,-161.5 2996.71,-161.5 "/>
<g id="a_node42_81"><a xlink:href="http://purl.org/dc/terms/created" xlink:title="&lt;TABLE&gt;">
<text text-anchor="start" x="2602.21" y="-153.5" font-family="Times New Roman,serif" font-size="10.00">dcterms:created</text>
</a>
</g>
<text text-anchor="start" x="2668.21" y="-153.5" font-family="Times New Roman,serif" font-size="10.00">2021&#45;02&#45;21 12:19:31</text>
<g id="a_node42_82"><a xlink:href="http://purl.org/dc/terms/title" xlink:title="&lt;TABLE&gt;">
<text text-anchor="start" x="2602.21" y="-140.5" font-family="Times New Roman,serif" font-size="10.00">dcterms:title</text>
</a>
</g>
<text text-anchor="start" x="2668.21" y="-140.5" font-family="Times New Roman,serif" font-size="10.00">Map Improvement using Reclassify function of RASTER package</text>
<g id="a_node42_83"><a xlink:href="http://purl.org/dc/terms/type" xlink:title="&lt;TABLE&gt;">
<text text-anchor="start" x="2602.21" y="-127.5" font-family="Times New Roman,serif" font-size="10.00">dcterms:type</text>
</a>
</g>
<text text-anchor="start" x="2668.21" y="-127.5" font-family="Times New Roman,serif" font-size="10.00">Improvement</text>
<g id="a_node42_84"><a xlink:href="http://www.w3.org/2000/01/rdf-schema#seeAlso" xlink:title="&lt;TABLE&gt;">
<text text-anchor="start" x="2602.21" y="-114.5" font-family="Times New Roman,serif" font-size="10.00">rdfs:seeAlso</text>
</a>
</g>
<text text-anchor="start" x="2668.21" y="-114.5" font-family="Times New Roman,serif" font-size="10.00">https://www.rdocumentation.org/packages/raster/versions/2.5&#45;2/topics/reclassify</text>
</g>
<!-- ann21&#45;&gt;n21 -->
<g id="edge21" class="edge">
<title>ann21:&#45;&gt;n21:</title>
<path fill="none" stroke="gray" stroke-dasharray="5,2" d="M2803.21,-167.63C2807.29,-180.43 2814.06,-194.37 2825.21,-203 2867.15,-235.49 2891.87,-207.61 2943.21,-221 2956.27,-224.41 2970.15,-229.18 2982.62,-233.92"/>
</g>
<!-- n22 -->
<g id="node43" class="node">
<title>n22</title>
<g id="a_node43"><a xlink:href="http://gbif.org/" xlink:title="gbif.org:">
<polygon fill="#fed37f" stroke="black" points="1787.54,-924.56 1736.21,-937 1684.87,-924.56 1684.92,-904.44 1787.49,-904.44 1787.54,-924.56"/>
<text text-anchor="middle" x="1736.21" y="-915.3" font-family="Times New Roman,serif" font-size="14.00">gbif.org:</text>
</a>
</g>
</g>
<!-- ann22 -->
<g id="node44" class="node">
<title>ann22</title>
<polygon fill="none" stroke="gray" points="1969.71,-841 1496.71,-841 1496.71,-766 1975.71,-766 1975.71,-835 1969.71,-841"/>
<polyline fill="none" stroke="gray" points="1969.71,-841 1969.71,-835 "/>
<polyline fill="none" stroke="gray" points="1975.71,-835 1969.71,-835 "/>
<g id="a_node44_85"><a xlink:href="http://purl.org/dc/terms/created" xlink:title="&lt;TABLE&gt;">
<text text-anchor="start" x="1507.21" y="-826.5" font-family="Times New Roman,serif" font-size="10.00">dcterms:created</text>
</a>
</g>
<text text-anchor="start" x="1588.21" y="-826.5" font-family="Times New Roman,serif" font-size="10.00">2021&#45;02&#45;21 12:17:55</text>
<g id="a_node44_86"><a xlink:href="http://purl.org/dc/terms/description" xlink:title="&lt;TABLE&gt;">
<text text-anchor="start" x="1507.21" y="-813.5" font-family="Times New Roman,serif" font-size="10.00">dcterms:description</text>
</a>
</g>
<text text-anchor="start" x="1588.21" y="-813.5" font-family="Times New Roman,serif" font-size="10.00">The Global Biodiversity Information Facility (GBIF) is an international open data infrastructure.</text>
<g id="a_node44_87"><a xlink:href="http://purl.org/dc/terms/type" xlink:title="&lt;TABLE&gt;">
<text text-anchor="start" x="1507.21" y="-800.5" font-family="Times New Roman,serif" font-size="10.00">dcterms:type</text>
</a>
</g>
<text text-anchor="start" x="1588.21" y="-800.5" font-family="Times New Roman,serif" font-size="10.00">Institution</text>
<g id="a_node44_88"><a xlink:href="http://xmlns.com/foaf/0.1/homepage" xlink:title="&lt;TABLE&gt;">
<text text-anchor="start" x="1507.21" y="-787.5" font-family="Times New Roman,serif" font-size="10.00">foaf:homepage</text>
</a>
</g>
<text text-anchor="start" x="1588.21" y="-787.5" font-family="Times New Roman,serif" font-size="10.00">http://gbif.org/</text>
<g id="a_node44_89"><a xlink:href="http://xmlns.com/foaf/0.1/name" xlink:title="&lt;TABLE&gt;">
<text text-anchor="start" x="1507.21" y="-774.5" font-family="Times New Roman,serif" font-size="10.00">foaf:name</text>
</a>
</g>
<text text-anchor="start" x="1588.21" y="-774.5" font-family="Times New Roman,serif" font-size="10.00">Global Biodiversity Information Facility</text>
</g>
<!-- ann22&#45;&gt;n22 -->
<g id="edge22" class="edge">
<title>ann22:&#45;&gt;n22:</title>
<path fill="none" stroke="gray" stroke-dasharray="5,2" d="M1736.21,-841.04C1736.21,-862.68 1736.21,-888.84 1736.21,-904.41"/>
</g>
<!-- n23&#45;&gt;n7 -->
<g id="edge54" class="edge">
<title>n23:&#45;&gt;n7:</title>
<path fill="none" stroke="darkgreen" d="M2077.41,-821.74C2073.35,-840.18 2066.85,-869.67 2062.12,-891.15"/>
<polygon fill="darkgreen" stroke="darkgreen" points="2058.69,-890.45 2059.96,-900.97 2065.53,-891.96 2058.69,-890.45"/>
<text text-anchor="middle" x="2103.21" y="-862" font-family="Times New Roman,serif" font-size="10.00" fill="darkgreen">wasGeneratedBy</text>
</g>
<!-- n23&#45;&gt;n22 -->
<g id="edge37" class="edge">
<title>n23:&#45;&gt;n22:</title>
<path fill="none" stroke="#fed37f" d="M2043.32,-819.91C2025.54,-826.85 2003.96,-834.84 1984.21,-841 1901.99,-866.65 1876.98,-858.12 1796.21,-888 1787.3,-891.29 1777.99,-895.53 1769.42,-899.78"/>
<polygon fill="#fed37f" stroke="#fed37f" points="1767.79,-896.68 1760.48,-904.35 1770.98,-902.91 1767.79,-896.68"/>
<text text-anchor="middle" x="1944.21" y="-862" font-family="Times New Roman,serif" font-size="10.00">wasAttributedTo</text>
</g>
<!-- ann23 -->
<g id="node46" class="node">
<title>ann23</title>
<polygon fill="none" stroke="gray" points="2439.71,-706 2166.71,-706 2166.71,-657 2445.71,-657 2445.71,-700 2439.71,-706"/>
<polyline fill="none" stroke="gray" points="2439.71,-706 2439.71,-700 "/>
<polyline fill="none" stroke="gray" points="2445.71,-700 2439.71,-700 "/>
<g id="a_node46_90"><a xlink:href="http://purl.org/dc/terms/created" xlink:title="&lt;TABLE&gt;">
<text text-anchor="start" x="2177.21" y="-691.5" font-family="Times New Roman,serif" font-size="10.00">dcterms:created</text>
</a>
</g>
<text text-anchor="start" x="2243.21" y="-691.5" font-family="Times New Roman,serif" font-size="10.00">2021&#45;02&#45;21 12:18:27</text>
<g id="a_node46_91"><a xlink:href="http://purl.org/dc/terms/title" xlink:title="&lt;TABLE&gt;">
<text text-anchor="start" x="2177.21" y="-678.5" font-family="Times New Roman,serif" font-size="10.00">dcterms:title</text>
</a>
</g>
<text text-anchor="start" x="2243.21" y="-678.5" font-family="Times New Roman,serif" font-size="10.00">Occurrence Dataset of Ziziphus juazeiro in Brazil</text>
<g id="a_node46_92"><a xlink:href="http://purl.org/dc/terms/type" xlink:title="&lt;TABLE&gt;">
<text text-anchor="start" x="2177.21" y="-665.5" font-family="Times New Roman,serif" font-size="10.00">dcterms:type</text>
</a>
</g>
<text text-anchor="start" x="2243.21" y="-665.5" font-family="Times New Roman,serif" font-size="10.00">Dataset</text>
</g>
<!-- ann23&#45;&gt;n23 -->
<g id="edge23" class="edge">
<title>ann23:&#45;&gt;n23:</title>
<path fill="none" stroke="gray" stroke-dasharray="5,2" d="M2280.02,-706.18C2264.13,-719.7 2242.96,-736.24 2222.21,-748 2217.54,-750.64 2161.32,-772.14 2121.3,-787.33"/>
</g>
<!-- b1&#45;&gt;n1 -->
<g id="edge46" class="edge">
<title>b1:&#45;&gt;n1:</title>
<path fill="none" stroke="black" d="M2743.76,-465.47C2737.19,-469.88 2709.39,-488.31 2685.21,-501 2650.13,-519.4 2609.27,-537.55 2577.89,-550.82"/>
<polygon fill="black" stroke="black" points="2576.34,-547.68 2568.47,-554.78 2579.05,-554.13 2576.34,-547.68"/>
</g>
<!-- b2&#45;&gt;n3 -->
<g id="edge48" class="edge">
<title>b2:&#45;&gt;n3:</title>
<path fill="none" stroke="black" d="M2617.29,-253.86C2617.7,-257.73 2619.85,-273.8 2628.21,-283 2649.15,-306.05 2679.24,-322.31 2706.75,-333.36"/>
<polygon fill="black" stroke="black" points="2705.77,-336.73 2716.36,-337.05 2708.28,-330.19 2705.77,-336.73"/>
</g>
<!-- b3&#45;&gt;n13 -->
<g id="edge50" class="edge">
<title>b3:&#45;&gt;n13:</title>
<path fill="none" stroke="black" d="M1835.27,-1158.48C1835.6,-1162.94 1837.39,-1181.53 1845.21,-1194 1858.03,-1214.46 1878.27,-1232.42 1895.67,-1245.46"/>
<polygon fill="black" stroke="black" points="1893.79,-1248.42 1903.94,-1251.46 1897.9,-1242.75 1893.79,-1248.42"/>
</g>
</g>
</svg>
